GDQ Event Index — event_index • gdqdonations
…
    event_index.Rd

    GDQ Event Index

event_index

    Format

    An object of class tbl_df (inherits from tbl, data.frame) with 22 rows and 8 columns.

    Examples

event_index

#> # A tibble: 22 x 8
#>    event  start               end                 event_duration event_name     
#>    <chr>  <dttm>              <dttm>                       <dbl> <chr>          
#>  1 AGDQ2… 2011-01-06 00:00:00 2011-01-11 00:00:00              5 Awesome Games …
#>  2 AGDQ2… 2012-01-04 00:00:00 2012-01-09 00:00:00              5 Awesome Games …
#>  3 AGDQ2… 2013-01-06 00:00:00 2013-01-12 00:00:00              6 Awesome Games …
#>  4 AGDQ2… 2014-01-05 00:00:00 2014-01-11 00:00:00              6 Awesome Games …
#>  5 AGDQ2… 2015-01-04 00:00:00 2015-01-10 00:00:00              6 Awesome Games …
#>  6 AGDQ2… 2016-01-03 00:00:00 2016-01-10 00:00:00              7 Awesome Games …
#>  7 AGDQ2… 2017-01-08 00:00:00 2017-01-15 00:00:00              7 Awesome Games …
#>  8 AGDQ2… 2018-01-07 00:00:00 2018-01-14 00:00:00              7 Awesome Games …
#>  9 AGDQ2… 2019-01-06 00:00:00 2019-01-12 00:00:00              6 Awesome Games …
#> 10 AGDQ2… 2020-01-05 00:00:00 2020-01-12 00:00:00              7 Awesome Games …
#> # … with 12 more rows, and 3 more variables: tracker_run_url <chr>,
#> #   tracker_donation_url <chr>, event_slug <chr>
…
